{
  "project_info": {
    "project_number": "627671892041",
    "firebase_url": "https://fir-test-bd9ec.firebaseio.com",
    "project_id": "fir-test-bd9ec",
    "storage_bucket": "fir-test-bd9ec.appspot.com"
  },
  "client": [
    {
      "client_info": {
        "mobilesdk_app_id": "1:627671892041:android:3039eab4784d2df7",
        "android_client_info": {
          "package_name": "firebasetest.example.sijansd.firebasetest"
        }
      },
      "oauth_client": [
        {
          "client_id": "627671892041-h50k3kbn6295i6qlabfh6hmm7e8qhni4.apps.googleusercontent.com",
          "client_type": 3
        }
      ],
      "api_key": [
        {
          "current_key": "AIzaSyBV8WnL8wQKYR5Ufow-7formRoI99pFY-0"
        }
      ],
      "services": {
        "analytics_service": {
          "status": 1
        },
        "appinvite_service": {
          "status": 1,
          "other_platform_oauth_client": []
        },
        "ads_service": {
          "status": 2
        }
      }
    }
  ],
  "configuration_version": "1"
}